Canis Major         (-307.72329805637395, -214.00684081299127, 91.37332170032477)
Sagittarius dSph    (270.9077814940736, 321.53674019377326, -136.33451005347555)
Segue (I)           (-398.1031515125066, -156.23572723278374, -84.85445357701263)
Ursa Major II       (344.3274861442208, 105.81425376072306, 269.7071114870031)
Bootes II           (83.8801450555627, 24.45005058362979, -453.6632190203606)
Segue II            (-28.2275271603988, -112.8641513379805, -438.8403924585411)
Willman 1           (-73.5401425453822, -73.41073450800172, 446.0568478270461)
Coma Berenices      (-126.95279707656658, 356.37011047137526, 268.66211433147)
Bootes III          (-17.11099777875303, 176.83454206351072, -431.8862795785529)
LMC                 (-267.1842946146667, 199.3762743494828, 331.8701763307193)
SMC                 (-234.8955774834826, 151.21771134715613, 391.0672978575803)
Bootes (I)          (56.22493563165882, -148.1003674243674, -455.43592061011526)
Draco               (-9.477299087259713, -45.768112634517394, -485.75658582039296)
Ursa Minor          (-146.65543009753912, -439.97875957223323, -151.83832173790904)
Sculptor            (-202.2862738296501, -229.50541101916576, -387.1060445576117)
Sextans (I)         (2.613208991241846, 59.45304095388713, -489.7979859698318)
Ursa Major (I)      (-27.01249238080221, 321.8939220761763, -379.8112533690828)
Carina              (-49.02353435805107, 41.34466450857349, 498.088497955653)
Hercules            (-179.98456807502052, -41.25011456805795, -477.54369779421273)
Fornax              (-383.8140257415428, -41.75073429451935, -343.5489918918971)
Leo IV              (-423.4397954203228, 250.0003177665704, -165.38446351156756)
Canes Venatici II   (-154.0227775241574, 37.151359907252306, 495.6943821154176)
Leo V               (227.42747639820385, -299.66122667867273, -366.20334816134266)
Pisces II           (299.83974243951195, -102.93221219069297, 419.73454533471187)
Canes Venatici (I)  (-283.09516615790807, 442.5337591931952, -94.67543964706793)
Leo II              (244.48767891299016, 39.585266486357206, 476.24890712414526)
Leo I               (446.23259320695564, -118.6987506783269, -280.7476435292023)
Andromeda           (510.4043056955189, 233.13280509011284, -180.35769991406195)
M32                 (560.1871945502463, 13.768408851270067, -186.57196461319913)
Andromeda IX        (253.00042930216452, -253.54022634241304, 466.821910795925)
NGC 205             (243.12508910490166, 273.7467946343391, -464.6971524285021)
Andromeda I         (-505.05589591821246, -179.7937923167274, 239.575821490027)
Andromeda XVII      (80.18909101564526, 28.359078645681134, -579.9964761448579)
Andromeda XXVII     (6.050827252567172, 36.08233953034528, -590.6680051124969)
Andromeda III       (107.95401308151726, -278.7747008073709, -505.63757499750403)
Andromeda XXV       (-540.9343961357902, 150.84152052468244, 184.16789829666232)
Andromeda XXVI      (138.9941432010112, 140.9039578499331, 553.9006615071343)
Andromeda V         (493.64457245449614, 272.3554911085396, 169.77326806433294)
Andromeda XI        (355.134644899522, -334.9320972846975, 325.2682496041754)
Andromeda XIX       (515.2368548013266, 272.2401411609103, 100.84765240264349)
Andromeda XXIII     (-105.57784565528726, -171.80859608110606, -552.9783764483271)
Andromeda XX        (-469.6462536520738, -304.15413521797154, -177.45889231137406)
Andromeda XIII      (-4.050547341399276, 228.54186259828077, 546.5253608995138)
Andromeda X         (-318.4602383917497, -342.7708509790103, -347.15123546171486)
Andromeda XXI       (29.367191812859833, -494.3785942485482, -323.96699460571)
And XXXII           (66.6443820315935, 234.80400786360113, -536.047203364421)
NGC 147             (-97.14242554579859, -516.8108968616069, -251.71183135518388)
And XXX             (131.03738643161284, -93.31470469375978, -560.7826042639774)
Andromeda XIV       (-28.183098594108923, -188.79347112543013, 558.2676223945341)
Andromeda XII       (379.79801611277986, -70.20968572365341, 454.9662701644842)
Andromeda XV        (-142.09924716028019, -63.183101200117854, 558.3474363505374)
Andromeda II        (-66.07368862179561, 143.14610394566375, 559.6154220507931)
NGC 185             (63.08303995922561, 169.03564797044618, -550.171318576963)
Andromeda XXIX      (-19.17050136611296, 14.889719214587043, -585.8973870389615)
Triangulum          (-427.8578046571679, 403.12914160316404, -58.90020529883392)
Andromeda XXIV      (-293.79935801447715, 278.00247699834796, 412.61289365828617)
Andromeda VII       (528.1624959722346, 229.77626259810253, 119.27483806246367)
IC 10               (511.53266445574934, -208.10154160459155, 207.67301600495486)
And XXXI            (-292.58499061117413, -141.4814205091901, 490.02145965229005)
LGS 3               (156.7931672143708, -16.7061641524607, -567.0862075506664)
Andromeda VI        (494.5942312462592, -303.4024847731356, 103.5173350285306)
Andromeda XXII      (-43.630348011311895, 8.122359146287062, -594.7464838183666)
Andromeda XVI       (240.8810574802798, 344.6068549412819, -381.60093248662326)
Andromeda XXVIII    (259.6338894039794, -52.58050564662405, 518.2176510877524)
IC 1613             (144.2049716455546, -236.80545981182772, -518.3019779588088)
Phoenix             (240.2073123597551, -119.73680232381896, -493.5410674484645)
NGC 6822            (-339.6077800223426, -444.8828015903729, -85.60542387838014)
Cetus               (7.455380483269959, 152.4334032161688, 567.6418896503204)
Pegasus dIrr        (-322.93671121411387, 466.12148660830644, -184.7582211222943)
Leo T               (90.05844312962043, 389.2372033923319, 395.2567220382031)
WLM                 (-273.7035770083465, -69.05184323470256, 526.0486620824412)
Andromeda XVIII     (144.78478661723432, 289.166811306997, 515.3353090976259)
Leo A               (-372.63617621524156, 294.9422391278329, 349.98199347101234)
Aquarius            (-435.37310506989735, 125.98804124124975, 397.7263793690194)
Tucana              (-3.742634705941139, -222.82063606650019, -551.4743845623095)
Sagittarius dIrr    (-212.75281377778475, -500.3125676028602, -260.3678454192619)
UGC 4879            (-363.5334447811366, 231.5161686853502, 436.4667893011069)
NGC 3109            (222.19498524447908, -367.4905332981732, 435.18967872461076)
Sextans B           (0.1489522916051718, -0.2087168368030334, 615.3999465798619)
Antlia              (-306.15940178925916, -422.05310738000475, 322.3454594793064)
Sextans A           (-4.570147551515303, 233.0077219783257, -569.7805500803171)
HIZSS 3(A)          (298.39947974439156, -540.9901430253999, -75.29392829195298)
HIZSS 3B            (298.39947974439156, -540.9901430253999, -75.29392829195298)
ESO 410- G 005      (-305.9625055561285, 293.18395050275325, -464.02228002695654)
KKR 25              (256.4876482348041, 369.5214913652584, 438.81033912406264)
NGC 55              (-25.275192253392802, 344.4765639298744, -525.199982444422)
Leo P               (-337.9032986464282, 322.1270242857921, 414.04292167436387)
ESO 294- G 010      (-116.07182377319155, 186.70057932062156, 591.2519474871177)
NGC 300             (578.2990993401374, 8.48275173332766, 254.30185729840153)
IC 5152             (-218.73663007931475, 364.9990696802986, 463.2180542617715)
KKH 98              (-52.502510447622356, -85.22577890516001, 632.3259389007429)
UKS 2323-326        (348.33521263321444, -511.5342294926393, 139.4943428858138)
KKR 3               (478.57152358403073, 263.1615918009475, 321.9802376159925)
GR 8                (-32.218764490947834, 400.201713402478, 490.4110314872593)
UGC 9128            (-282.1529385304821, -508.39176288646394, 257.7276366783496)
UGC 8508            (-28.741624115265694, -422.8211219037818, -481.1794446100583)
IC 3104             (31.88649611822243, -78.80177533206022, -629.889586808528)
DDO 125             (-398.0449710836559, 210.64936418411367, 456.42577311523536)
UGCA 86             (65.89850888264849, 153.4498240705422, -625.2826385081894)
DDO 99              (128.0704493322571, 311.89308385804765, -545.632315987012)
IC 4662             (78.75660611432242, 323.2029832180097, -545.3463749144505)
DDO 190             (-113.59808932012031, -68.6412641945337, -630.7876116036159)
KKH 86              (-251.6586724173595, -496.2432878587491, -318.66589377005954)
NGC 4163            (26.331625122686084, -644.2162753157893, -33.036285152081575)
DDO 113             (42.63805211463087, -469.4690372329803, -443.15891008915605)
