Canis Major         (-5751.725550733015, -4000.050116810578, 1707.8793591469487)
Sagittarius dSph    (16121.26847102375, 19134.11303054441, -8113.038415936558)
Segue (I)           (-20917.468629929124, -8209.068204684256, -4458.49364433172)
Ursa Major II       (24196.869271462372, 7435.867795442722, 18953.08385430872)
Bootes II           (7568.628648206653, 2206.163963769755, -40934.69835848171)
Segue II            (-2155.842260718056, -8619.859110997631, -33515.8888837946)
Willman 1           (-6104.624978091022, -6093.882715293924, 37027.52919214348)
Coma Berenices      (-11943.298679115158, 33526.11968920952, 25274.84190275952)
Bootes III          (-1713.7933540920735, 17711.29111703066, -43256.61456074449)
LMC                 (-28730.52838350429, 21439.08090651939, 35686.249951403035)
SMC                 (-31267.349899500077, 20128.846793744382, 52055.633262081334)
Bootes (I)          (7739.301412133331, -20385.85495684373, -62690.26053858937)
Draco               (-1473.2103605409363, -7114.480306548105, -75509.02723895271)
Ursa Minor          (-22797.03289513385, -68393.03698783871, -23602.6938320582)
Sculptor            (-35218.20924900944, -39957.083770595236, -67395.48571776626)
Sextans (I)         (454.96186826027997, 10350.824092825924, -85274.2384990263)
Ursa Major (I)      (-5245.807905085535, 62511.58379692046, -73759.09069316355)
Carina              (-10268.994238298004, 8660.49596754908, 104334.94815595847)
Hercules            (-46340.99017598833, -10620.750292102779, -122954.14015085265)
Fornax              (-109344.85075625136, -11894.374629947239, -97873.73760847465)
Leo IV              (-125832.17509567874, 74291.75079765919, -49146.74292725596)
Canes Venatici II   (-47342.11575293943, 11419.24596725567, 152362.01549805983)
Leo V               (77034.20924876933, -101501.21702660763, -124040.35693764394)
Pisces II           (103729.77885220073, -35609.47431597508, 145207.47386575016)
Canes Venatici (I)  (-115492.52713526, 180537.67178553782, -38624.13453002091)
Leo II              (106278.26853351085, 17207.630258966514, 207024.3763005503)
Leo I               (209336.97685053275, -55684.04908381928, -131704.5501583459)
Andromeda           (678428.678108885, 309879.7933641534, -239731.19853038553)
M32                 (763905.671396133, 18775.448117892534, -254420.99226485932)
Andromeda IX        (329191.4857593957, -329893.84262961155, 607405.2871128307)
NGC 205             (338689.40609750117, 381347.4768776123, -647354.0149667598)
Andromeda I         (-640550.5352520912, -228028.24565408684, 303848.38971119997)
Andromeda XVII      (99556.46705109504, 35208.40108085678, -720077.9973400742)
Andromeda XXVII     (8465.250097566784, 50480.04437742001, -826358.476154932)
Andromeda III       (137500.68104421772, -355074.4444300263, -644028.9613986285)
Andromeda XXV       (-743972.9008831978, 207459.54481735238, 253294.90327129173)
Andromeda XXVI      (180082.48733416683, 182556.8662137697, 717640.37363784)
Andromeda V         (647808.384975302, 357411.34548874607, 222792.98250943996)
Andromeda XI        (444683.46699923486, -419386.7547674022, 407286.1237733664)
Andromeda XIX       (714702.9921067065, 377633.7846295576, 139889.2921720413)
Andromeda XXIII     (-137959.794280263, -224504.28329746073, -722583.2520330895)
Andromeda XX        (-593106.6058277526, -384110.0091500961, -224109.1895746819)
Andromeda XIII      (-5739.825146197197, 323855.07916250994, 774453.362750194)
Andromeda X         (-366171.66565353755, -394124.4724123661, -399161.12216913025)
Andromeda XXI       (41085.394274576414, -691647.3183764875, -453237.4695593675)
And XXXII           (87831.08555437252, 309449.80318672484, -706460.2648361722)
NGC 147             (-112652.38439073341, -599325.9843313788, -291900.65846308315)
And XXX             (153259.99167206747, -109139.92757105871, -655885.618599327)
Andromeda XIV       (-37943.44229715074, -254176.24516361466, 751606.3305091058)
Andromeda XII       (591185.6413111212, -109286.9270503639, 708190.9720198478)
Andromeda XV        (-153272.20322393053, -68151.0516135203, 602249.0860725783)
Andromeda II        (-74054.8531240056, 160436.98973199062, 627212.4161724098)
NGC 185             (67179.07969099598, 180011.2878670019, -585894.4476720148)
Andromeda XXIX      (-23902.28990234896, 18564.897100747952, -730512.4123038801)
Triangulum          (-585947.8591394372, 552082.1518456687, -80663.36250516468)
Andromeda XXIV      (-304981.36577826436, 288583.2552449581, 428316.94628626475)
Andromeda VII       (684293.6961289885, 297700.89549150114, 154533.9179047664)
IC 10               (688686.1667134643, -280171.0681121644, 279594.13593742944)
And XXXI            (-377463.2868499335, -182524.88585296873, 632175.664243699)
LGS 3               (204883.4484089722, -21830.138277408216, -741018.1184062314)
Andromeda VI        (657413.9496089008, -403282.15178180987, 137595.0946751137)
Andromeda XXII      (-67336.57803899044, 12535.583497359803, -917897.6296651919)
Andromeda XVI       (202119.05586132754, 289153.5469524228, -320194.62633051904)
Andromeda XXVIII    (294739.5354122648, -59690.02675885041, 588286.953119527)
IC 1613             (185246.773188623, -304202.0452069589, -665814.5545088768)
Phoenix             (177420.78201141977, -88439.4271562483, -364536.9546881796)
NGC 6822            (-275427.79535535164, -360807.66237300966, -69427.48239669723)
Cetus               (9577.236912565013, 195817.07724586639, 729196.9700106789)
Pegasus dIrr        (-498402.0079483717, 719385.1823165116, -285145.2473338257)
Leo T               (66801.79299598424, 288720.77046597685, 293185.81143873936)
WLM                 (-427864.3892572196, -107944.60582369489, 822340.3288390986)
Andromeda XVIII     (288757.80045743455, 576712.3352472394, 1027781.2595496099)
Leo A               (-503832.07201561565, 398784.03909680084, 473201.91702698)
Aquarius            (-773649.5639529604, 223878.30583593805, 706752.0625143612)
Tucana              (-5582.213988294559, -332341.40365251835, -822534.996216185)
Sagittarius dIrr    (-376445.4644263584, -885254.5521034546, -460695.64369154687)
UGC 4879            (-806864.4853208474, 513851.41304460395, 968740.4456585891)
NGC 3109            (472507.6221891191, -781485.1351153329, 925450.4104544001)
Sextans B           (345.05609034250944, -483.5039120231281, 1425607.4698515306)
Antlia              (-673731.9236055061, -928766.6824438757, 709350.8323157197)
Sextans A           (-10632.407441804484, 542090.3831297151, -1325589.3584575283)
HIZSS 3(A)          (803023.9119663625, -1455860.5174500602, -202623.76092649763)
HIZSS 3B            (803023.9119663625, -1455860.5174500602, -202623.76092649763)
ESO 410- G 005      (-936336.670578644, 897230.4746356633, -1420046.7994110037)
KKR 25              (784928.8270018629, 1130846.1548362125, 1342890.7284050728)
NGC 55              (-77681.94502078659, 1058730.2059614565, -1614173.92010892)
Leo P               (-941039.4750399214, 897103.5412923397, 1153083.545550517)
ESO 294- G 010      (-373968.58721876884, 601525.4142804681, 1904938.2382770104)
NGC 300             (1903587.7192984074, 27922.682300292265, 837085.6760807249)
IC 5152             (-678064.2876461449, 1131464.968096726, 1435935.1694956191)
KKH 98              (-206949.5089371064, -335935.0427785878, 2492443.5313288844)
UKS 2323-326        (1212367.273283861, -1780375.1573469772, 485504.68051897513)
KKR 3               (1651420.2107448115, 908099.103217019, 1111066.2579281174)
GR 8                (-110702.30086002221, 1375076.021125047, 1685031.3911953259)
UGC 9128            (-1016312.9559950564, -1831223.6549216742, 928333.1856772273)
UGC 8508            (-115749.14498913582, -1702798.1142414117, -1937820.530830034)
IC 3104             (113873.56322920544, -281418.1562182017, -2249471.733266678)
DDO 125             (-1603018.8442165055, 848333.5422880936, 1838131.7902293983)
UGCA 86             (301881.903056435, 702955.5857869764, -2864427.6791929547)
DDO 99              (517988.3326395767, 1261469.5998318356, -2206841.430368876)
IC 4662             (301246.55229527276, 1236261.8095127142, -2085967.4299731834)
DDO 190             (-492131.0032690518, -297368.5069518926, -2732705.64677705)
KKH 86              (-1013487.4788073922, -1998486.0996682341, -1283341.0037358354)
NGC 4163            (116550.50022038723, -2851465.82439689, -146227.03847401883)
DDO 113             (194488.11871372638, -2141424.040674124, -2021413.70067162)
